[
   {
      "1": {
         "BusinessInfo": {
            "Action": "http://docs.oasis-open.org/ebxml-msg/as4/200902/action", 
            "Service": "A04"
         }, 
         "Protocol": {
            "Address": "https://rnu10.eu/as4", 
            "SOAPVersion": "1.2"
         }, 
         "Security": {
            "PModeAuthorize": false
         }
      }, 
      "Agreement": "http://entsog.eu/communication/agreements/21X-EU-F-A0A0A-F/21X-EU-I-A0A0A-I/1", 
      "Initiator": {
         "Party": [
            {
               "ID": "21X-EU-F-A0A0A-F", 
               "type": "http://www.entsoe.eu/eic-codes/eic-party-codes-x"
            }
         ], 
         "Role": "ZUJ"
      }, 
      "MEP": "http://docs.oasis-open.org/ebxml-msg/ebms/v3.0/ns/core/200704/oneWay", 
      "MEPBinding": "http://docs.oasis-open.org/ebxml-msg/ebms/v3.0/ns/core/200704/push", 
      "Responder": {
         "Party": [
            {
               "ID": "21X-EU-I-A0A0A-I", 
               "type": "http://www.entsoe.eu/eic-codes/eic-party-codes-x"
            }
         ], 
         "Role": "ZSH"
      }
   }, 
   {
      "1": {
         "BusinessInfo": {
            "Action": "http://docs.oasis-open.org/ebxml-msg/as4/200902/action", 
            "Service": "A04"
         }, 
         "Protocol": {
            "Address": "https://ao7.eu/as4", 
            "SOAPVersion": "1.2"
         }, 
         "Security": {
            "PModeAuthorize": false
         }
      }, 
      "Agreement": "http://entsog.eu/communication/agreements/21X-EU-F-A0A0A-F/21X-EU-I-A0A0A-I/1", 
      "Initiator": {
         "Party": [
            {
               "ID": "21X-EU-I-A0A0A-I", 
               "type": "http://www.entsoe.eu/eic-codes/eic-party-codes-x"
            }
         ], 
         "Role": "ZSH"
      }, 
      "MEP": "http://docs.oasis-open.org/ebxml-msg/ebms/v3.0/ns/core/200704/oneWay", 
      "MEPBinding": "http://docs.oasis-open.org/ebxml-msg/ebms/v3.0/ns/core/200704/push", 
      "Responder": {
         "Party": [
            {
               "ID": "21X-EU-F-A0A0A-F", 
               "type": "http://www.entsoe.eu/eic-codes/eic-party-codes-x"
            }
         ], 
         "Role": "ZUJ"
      }
   }, 
   {
      "1": {
         "BusinessInfo": {
            "Action": "http://docs.oasis-open.org/ebxml-msg/ebms/v3.0/ns/core/200704/test", 
            "Service": "http://docs.oasis-open.org/ebxml-msg/ebms/v3.0/ns/core/200704/service"
         }, 
         "Protocol": {
            "Address": "https://rnu10.eu/as4", 
            "SOAPVersion": "1.2"
         }, 
         "Security": {
            "PModeAuthorize": false
         }
      }, 
      "Agreement": "http://entsog.eu/communication/agreements/21X-EU-F-A0A0A-F/21X-EU-I-A0A0A-I/1", 
      "Initiator": {
         "Party": [
            {
               "ID": "21X-EU-F-A0A0A-F", 
               "type": "http://www.entsoe.eu/eic-codes/eic-party-codes-x"
            }
         ], 
         "Role": "http://docs.oasis-open.org/ebxml-msg/ebms/v3.0/ns/core/200704/initiator"
      }, 
      "MEP": "http://docs.oasis-open.org/ebxml-msg/ebms/v3.0/ns/core/200704/oneWay", 
      "MEPBinding": "http://docs.oasis-open.org/ebxml-msg/ebms/v3.0/ns/core/200704/push", 
      "Responder": {
         "Party": [
            {
               "ID": "21X-EU-I-A0A0A-I", 
               "type": "http://www.entsoe.eu/eic-codes/eic-party-codes-x"
            }
         ], 
         "Role": "http://docs.oasis-open.org/ebxml-msg/ebms/v3.0/ns/core/200704/responder"
      }
   }, 
   {
      "1": {
         "BusinessInfo": {
            "Action": "UpdateCertificate", 
            "Service": "http://docs.oasis-open.org/ebcore/ns/CertificateUpdate/v1.0"
         }, 
         "Protocol": {
            "Address": "https://rnu10.eu/as4", 
            "SOAPVersion": "1.2"
         }, 
         "Security": {
            "PModeAuthorize": false
         }
      }, 
      "Agreement": "http://entsog.eu/communication/agreements/21X-EU-F-A0A0A-F/21X-EU-I-A0A0A-I/1", 
      "Initiator": {
         "Party": [
            {
               "ID": "21X-EU-F-A0A0A-F", 
               "type": "http://www.entsoe.eu/eic-codes/eic-party-codes-x"
            }
         ], 
         "Role": "http://docs.oasis-open.org/ebxml-msg/ebms/v3.0/ns/core/200704/initiator"
      }, 
      "MEP": "http://docs.oasis-open.org/ebxml-msg/ebms/v3.0/ns/core/200704/oneWay", 
      "MEPBinding": "http://docs.oasis-open.org/ebxml-msg/ebms/v3.0/ns/core/200704/push", 
      "Responder": {
         "Party": [
            {
               "ID": "21X-EU-I-A0A0A-I", 
               "type": "http://www.entsoe.eu/eic-codes/eic-party-codes-x"
            }
         ], 
         "Role": "http://docs.oasis-open.org/ebxml-msg/ebms/v3.0/ns/core/200704/responder"
      }
   }, 
   {
      "1": {
         "BusinessInfo": {
            "Action": "ConfirmCertificateUpdate", 
            "Service": "http://docs.oasis-open.org/ebcore/ns/CertificateUpdate/v1.0"
         }, 
         "Protocol": {
            "Address": "https://ao7.eu/as4", 
            "SOAPVersion": "1.2"
         }, 
         "Security": {
            "PModeAuthorize": false
         }
      }, 
      "Agreement": "http://entsog.eu/communication/agreements/21X-EU-F-A0A0A-F/21X-EU-I-A0A0A-I/1", 
      "Initiator": {
         "Party": [
            {
               "ID": "21X-EU-I-A0A0A-I", 
               "type": "http://www.entsoe.eu/eic-codes/eic-party-codes-x"
            }
         ], 
         "Role": "http://docs.oasis-open.org/ebxml-msg/ebms/v3.0/ns/core/200704/responder"
      }, 
      "MEP": "http://docs.oasis-open.org/ebxml-msg/ebms/v3.0/ns/core/200704/oneWay", 
      "MEPBinding": "http://docs.oasis-open.org/ebxml-msg/ebms/v3.0/ns/core/200704/push", 
      "Responder": {
         "Party": [
            {
               "ID": "21X-EU-F-A0A0A-F", 
               "type": "http://www.entsoe.eu/eic-codes/eic-party-codes-x"
            }
         ], 
         "Role": "http://docs.oasis-open.org/ebxml-msg/ebms/v3.0/ns/core/200704/initiator"
      }
   }, 
   {
      "1": {
         "BusinessInfo": {
            "Action": "RejectCertificateUpdate", 
            "Service": "http://docs.oasis-open.org/ebcore/ns/CertificateUpdate/v1.0"
         }, 
         "Protocol": {
            "Address": "https://ao7.eu/as4", 
            "SOAPVersion": "1.2"
         }, 
         "Security": {
            "PModeAuthorize": false
         }
      }, 
      "Agreement": "http://entsog.eu/communication/agreements/21X-EU-F-A0A0A-F/21X-EU-I-A0A0A-I/1", 
      "Initiator": {
         "Party": [
            {
               "ID": "21X-EU-I-A0A0A-I", 
               "type": "http://www.entsoe.eu/eic-codes/eic-party-codes-x"
            }
         ], 
         "Role": "http://docs.oasis-open.org/ebxml-msg/ebms/v3.0/ns/core/200704/responder"
      }, 
      "MEP": "http://docs.oasis-open.org/ebxml-msg/ebms/v3.0/ns/core/200704/oneWay", 
      "MEPBinding": "http://docs.oasis-open.org/ebxml-msg/ebms/v3.0/ns/core/200704/push", 
      "Responder": {
         "Party": [
            {
               "ID": "21X-EU-F-A0A0A-F", 
               "type": "http://www.entsoe.eu/eic-codes/eic-party-codes-x"
            }
         ], 
         "Role": "http://docs.oasis-open.org/ebxml-msg/ebms/v3.0/ns/core/200704/initiator"
      }
   }, 
   {
      "1": {
         "BusinessInfo": {
            "Action": "http://docs.oasis-open.org/ebxml-msg/ebms/v3.0/ns/core/200704/test", 
            "Service": "http://docs.oasis-open.org/ebxml-msg/ebms/v3.0/ns/core/200704/service"
         }, 
         "Protocol": {
            "Address": "https://ao7.eu/as4", 
            "SOAPVersion": "1.2"
         }, 
         "Security": {
            "PModeAuthorize": false
         }
      }, 
      "Agreement": "http://entsog.eu/communication/agreements/21X-EU-F-A0A0A-F/21X-EU-I-A0A0A-I/1", 
      "Initiator": {
         "Party": [
            {
               "ID": "21X-EU-I-A0A0A-I", 
               "type": "http://www.entsoe.eu/eic-codes/eic-party-codes-x"
            }
         ], 
         "Role": "http://docs.oasis-open.org/ebxml-msg/ebms/v3.0/ns/core/200704/initiator"
      }, 
      "MEP": "http://docs.oasis-open.org/ebxml-msg/ebms/v3.0/ns/core/200704/oneWay", 
      "MEPBinding": "http://docs.oasis-open.org/ebxml-msg/ebms/v3.0/ns/core/200704/push", 
      "Responder": {
         "Party": [
            {
               "ID": "21X-EU-F-A0A0A-F", 
               "type": "http://www.entsoe.eu/eic-codes/eic-party-codes-x"
            }
         ], 
         "Role": "http://docs.oasis-open.org/ebxml-msg/ebms/v3.0/ns/core/200704/responder"
      }
   }, 
   {
      "1": {
         "BusinessInfo": {
            "Action": "ConfirmCertificateUpdate", 
            "Service": "http://docs.oasis-open.org/ebcore/ns/CertificateUpdate/v1.0"
         }, 
         "Protocol": {
            "Address": "https://rnu10.eu/as4", 
            "SOAPVersion": "1.2"
         }, 
         "Security": {
            "PModeAuthorize": false
         }
      }, 
      "Agreement": "http://entsog.eu/communication/agreements/21X-EU-F-A0A0A-F/21X-EU-I-A0A0A-I/1", 
      "Initiator": {
         "Party": [
            {
               "ID": "21X-EU-F-A0A0A-F", 
               "type": "http://www.entsoe.eu/eic-codes/eic-party-codes-x"
            }
         ], 
         "Role": "http://docs.oasis-open.org/ebxml-msg/ebms/v3.0/ns/core/200704/responder"
      }, 
      "MEP": "http://docs.oasis-open.org/ebxml-msg/ebms/v3.0/ns/core/200704/oneWay", 
      "MEPBinding": "http://docs.oasis-open.org/ebxml-msg/ebms/v3.0/ns/core/200704/push", 
      "Responder": {
         "Party": [
            {
               "ID": "21X-EU-I-A0A0A-I", 
               "type": "http://www.entsoe.eu/eic-codes/eic-party-codes-x"
            }
         ], 
         "Role": "http://docs.oasis-open.org/ebxml-msg/ebms/v3.0/ns/core/200704/initiator"
      }
   }, 
   {
      "1": {
         "BusinessInfo": {
            "Action": "RejectCertificateUpdate", 
            "Service": "http://docs.oasis-open.org/ebcore/ns/CertificateUpdate/v1.0"
         }, 
         "Protocol": {
            "Address": "https://rnu10.eu/as4", 
            "SOAPVersion": "1.2"
         }, 
         "Security": {
            "PModeAuthorize": false
         }
      }, 
      "Agreement": "http://entsog.eu/communication/agreements/21X-EU-F-A0A0A-F/21X-EU-I-A0A0A-I/1", 
      "Initiator": {
         "Party": [
            {
               "ID": "21X-EU-F-A0A0A-F", 
               "type": "http://www.entsoe.eu/eic-codes/eic-party-codes-x"
            }
         ], 
         "Role": "http://docs.oasis-open.org/ebxml-msg/ebms/v3.0/ns/core/200704/responder"
      }, 
      "MEP": "http://docs.oasis-open.org/ebxml-msg/ebms/v3.0/ns/core/200704/oneWay", 
      "MEPBinding": "http://docs.oasis-open.org/ebxml-msg/ebms/v3.0/ns/core/200704/push", 
      "Responder": {
         "Party": [
            {
               "ID": "21X-EU-I-A0A0A-I", 
               "type": "http://www.entsoe.eu/eic-codes/eic-party-codes-x"
            }
         ], 
         "Role": "http://docs.oasis-open.org/ebxml-msg/ebms/v3.0/ns/core/200704/initiator"
      }
   }, 
   {
      "1": {
         "BusinessInfo": {
            "Action": "UpdateCertificate", 
            "Service": "http://docs.oasis-open.org/ebcore/ns/CertificateUpdate/v1.0"
         }, 
         "Protocol": {
            "Address": "https://ao7.eu/as4", 
            "SOAPVersion": "1.2"
         }, 
         "Security": {
            "PModeAuthorize": false
         }
      }, 
      "Agreement": "http://entsog.eu/communication/agreements/21X-EU-F-A0A0A-F/21X-EU-I-A0A0A-I/1", 
      "Initiator": {
         "Party": [
            {
               "ID": "21X-EU-I-A0A0A-I", 
               "type": "http://www.entsoe.eu/eic-codes/eic-party-codes-x"
            }
         ], 
         "Role": "http://docs.oasis-open.org/ebxml-msg/ebms/v3.0/ns/core/200704/initiator"
      }, 
      "MEP": "http://docs.oasis-open.org/ebxml-msg/ebms/v3.0/ns/core/200704/oneWay", 
      "MEPBinding": "http://docs.oasis-open.org/ebxml-msg/ebms/v3.0/ns/core/200704/push", 
      "Responder": {
         "Party": [
            {
               "ID": "21X-EU-F-A0A0A-F", 
               "type": "http://www.entsoe.eu/eic-codes/eic-party-codes-x"
            }
         ], 
         "Role": "http://docs.oasis-open.org/ebxml-msg/ebms/v3.0/ns/core/200704/responder"
      }
   }
]