[
   {
      "1": {
         "BusinessInfo": {
            "Action": "http://docs.oasis-open.org/ebxml-msg/as4/200902/action", 
            "PayloadProfile": [
               {
                  "MIMEContentType": "application/xml", 
                  "PartName": "businessdocument"
               }
            ], 
            "Service": "A02"
         }, 
         "Protocol": {
            "Address": "https://et14.eu/as4", 
            "SOAPVersion": "1.2"
         }, 
         "Security": {
            "PModeAuthorize": false
         }
      }, 
      "Agreement": "http://entsog.eu/communication/agreements/21X-EU-C-A0A0A-C/21X-EU-M-A0A0A-M/1", 
      "Initiator": {
         "Party": [
            {
               "ID": "21X-EU-C-A0A0A-C", 
               "type": "http://www.entsoe.eu/eic-codes/eic-party-codes-x"
            }
         ], 
         "Role": "ZSO"
      }, 
      "MEP": "http://docs.oasis-open.org/ebxml-msg/ebms/v3.0/ns/core/200704/oneWay", 
      "MEPBinding": "http://docs.oasis-open.org/ebxml-msg/ebms/v3.0/ns/core/200704/push", 
      "Responder": {
         "Party": [
            {
               "ID": "21X-EU-M-A0A0A-M", 
               "type": "http://www.entsoe.eu/eic-codes/eic-party-codes-x"
            }
         ], 
         "Role": "ZSO"
      }
   }, 
   {
      "1": {
         "BusinessInfo": {
            "Action": "http://docs.oasis-open.org/ebxml-msg/as4/200902/action", 
            "PayloadProfile": [
               {
                  "MIMEContentType": "application/xml", 
                  "PartName": "businessdocument"
               }
            ], 
            "Service": "A02"
         }, 
         "Protocol": {
            "Address": "https://et14.eu/as4", 
            "SOAPVersion": "1.2"
         }, 
         "Security": {
            "PModeAuthorize": false
         }
      }, 
      "Agreement": "http://entsog.eu/communication/agreements/21X-EU-C-A0A0A-C/21X-EU-M-A0A0A-M/1", 
      "Initiator": {
         "Party": [
            {
               "ID": "21X-EU-C-A0A0A-C", 
               "type": "http://www.entsoe.eu/eic-codes/eic-party-codes-x"
            }
         ], 
         "Role": "ZSO"
      }, 
      "MEP": "http://docs.oasis-open.org/ebxml-msg/ebms/v3.0/ns/core/200704/oneWay", 
      "MEPBinding": "http://docs.oasis-open.org/ebxml-msg/ebms/v3.0/ns/core/200704/push", 
      "Responder": {
         "Party": [
            {
               "ID": "21X-EU-M-A0A0A-M", 
               "type": "http://www.entsoe.eu/eic-codes/eic-party-codes-x"
            }
         ], 
         "Role": "ZSO"
      }
   }, 
   {
      "1": {
         "BusinessInfo": {
            "Action": "http://docs.oasis-open.org/ebxml-msg/as4/200902/action", 
            "PayloadProfile": [
               {
                  "MIMEContentType": "application/xml", 
                  "PartName": "businessdocument"
               }
            ], 
            "Service": "A02"
         }, 
         "Protocol": {
            "Address": "https://et14.eu/as4", 
            "SOAPVersion": "1.2"
         }, 
         "Security": {
            "PModeAuthorize": false
         }
      }, 
      "Agreement": "http://entsog.eu/communication/agreements/21X-EU-C-A0A0A-C/21X-EU-M-A0A0A-M/1", 
      "Initiator": {
         "Party": [
            {
               "ID": "21X-EU-C-A0A0A-C", 
               "type": "http://www.entsoe.eu/eic-codes/eic-party-codes-x"
            }
         ], 
         "Role": "ZSO"
      }, 
      "MEP": "http://docs.oasis-open.org/ebxml-msg/ebms/v3.0/ns/core/200704/oneWay", 
      "MEPBinding": "http://docs.oasis-open.org/ebxml-msg/ebms/v3.0/ns/core/200704/push", 
      "Responder": {
         "Party": [
            {
               "ID": "21X-EU-M-A0A0A-M", 
               "type": "http://www.entsoe.eu/eic-codes/eic-party-codes-x"
            }
         ], 
         "Role": "ZSO"
      }
   }, 
   {
      "1": {
         "BusinessInfo": {
            "Action": "http://docs.oasis-open.org/ebxml-msg/as4/200902/action", 
            "PayloadProfile": [
               {
                  "MIMEContentType": "application/xml", 
                  "PartName": "businessdocument"
               }
            ], 
            "Service": "A02"
         }, 
         "Protocol": {
            "Address": "https://et14.eu/as4", 
            "SOAPVersion": "1.2"
         }, 
         "Security": {
            "PModeAuthorize": false
         }
      }, 
      "Agreement": "http://entsog.eu/communication/agreements/21X-EU-C-A0A0A-C/21X-EU-M-A0A0A-M/1", 
      "Initiator": {
         "Party": [
            {
               "ID": "21X-EU-C-A0A0A-C", 
               "type": "http://www.entsoe.eu/eic-codes/eic-party-codes-x"
            }
         ], 
         "Role": "ZSO"
      }, 
      "MEP": "http://docs.oasis-open.org/ebxml-msg/ebms/v3.0/ns/core/200704/oneWay", 
      "MEPBinding": "http://docs.oasis-open.org/ebxml-msg/ebms/v3.0/ns/core/200704/push", 
      "Responder": {
         "Party": [
            {
               "ID": "21X-EU-M-A0A0A-M", 
               "type": "http://www.entsoe.eu/eic-codes/eic-party-codes-x"
            }
         ], 
         "Role": "ZSO"
      }
   }, 
   {
      "1": {
         "BusinessInfo": {
            "Action": "http://docs.oasis-open.org/ebxml-msg/as4/200902/action", 
            "PayloadProfile": [
               {
                  "MIMEContentType": "application/xml", 
                  "PartName": "businessdocument"
               }
            ], 
            "Service": "A02"
         }, 
         "Protocol": {
            "Address": "https://et14.eu/as4", 
            "SOAPVersion": "1.2"
         }, 
         "Security": {
            "PModeAuthorize": false
         }
      }, 
      "Agreement": "http://entsog.eu/communication/agreements/21X-EU-C-A0A0A-C/21X-EU-M-A0A0A-M/1", 
      "Initiator": {
         "Party": [
            {
               "ID": "21X-EU-C-A0A0A-C", 
               "type": "http://www.entsoe.eu/eic-codes/eic-party-codes-x"
            }
         ], 
         "Role": "ZSO"
      }, 
      "MEP": "http://docs.oasis-open.org/ebxml-msg/ebms/v3.0/ns/core/200704/oneWay", 
      "MEPBinding": "http://docs.oasis-open.org/ebxml-msg/ebms/v3.0/ns/core/200704/push", 
      "Responder": {
         "Party": [
            {
               "ID": "21X-EU-M-A0A0A-M", 
               "type": "http://www.entsoe.eu/eic-codes/eic-party-codes-x"
            }
         ], 
         "Role": "ZSO"
      }
   }, 
   {
      "1": {
         "BusinessInfo": {
            "Action": "http://docs.oasis-open.org/ebxml-msg/as4/200902/action", 
            "PayloadProfile": [
               {
                  "MIMEContentType": "application/xml", 
                  "PartName": "businessdocument"
               }
            ], 
            "Service": "A02"
         }, 
         "Protocol": {
            "Address": "https://et14.eu/as4", 
            "SOAPVersion": "1.2"
         }, 
         "Security": {
            "PModeAuthorize": false
         }
      }, 
      "Agreement": "http://entsog.eu/communication/agreements/21X-EU-C-A0A0A-C/21X-EU-M-A0A0A-M/1", 
      "Initiator": {
         "Party": [
            {
               "ID": "21X-EU-C-A0A0A-C", 
               "type": "http://www.entsoe.eu/eic-codes/eic-party-codes-x"
            }
         ], 
         "Role": "ZSO"
      }, 
      "MEP": "http://docs.oasis-open.org/ebxml-msg/ebms/v3.0/ns/core/200704/oneWay", 
      "MEPBinding": "http://docs.oasis-open.org/ebxml-msg/ebms/v3.0/ns/core/200704/push", 
      "Responder": {
         "Party": [
            {
               "ID": "21X-EU-M-A0A0A-M", 
               "type": "http://www.entsoe.eu/eic-codes/eic-party-codes-x"
            }
         ], 
         "Role": "ZSO"
      }
   }, 
   {
      "1": {
         "BusinessInfo": {
            "Action": "http://docs.oasis-open.org/ebxml-msg/as4/200902/action", 
            "PayloadProfile": [
               {
                  "MIMEContentType": "application/xml", 
                  "PartName": "businessdocument"
               }
            ], 
            "Service": "A02"
         }, 
         "Protocol": {
            "Address": "https://et14.eu/as4", 
            "SOAPVersion": "1.2"
         }, 
         "Security": {
            "PModeAuthorize": false
         }
      }, 
      "Agreement": "http://entsog.eu/communication/agreements/21X-EU-C-A0A0A-C/21X-EU-M-A0A0A-M/1", 
      "Initiator": {
         "Party": [
            {
               "ID": "21X-EU-C-A0A0A-C", 
               "type": "http://www.entsoe.eu/eic-codes/eic-party-codes-x"
            }
         ], 
         "Role": "ZSO"
      }, 
      "MEP": "http://docs.oasis-open.org/ebxml-msg/ebms/v3.0/ns/core/200704/oneWay", 
      "MEPBinding": "http://docs.oasis-open.org/ebxml-msg/ebms/v3.0/ns/core/200704/push", 
      "Responder": {
         "Party": [
            {
               "ID": "21X-EU-M-A0A0A-M", 
               "type": "http://www.entsoe.eu/eic-codes/eic-party-codes-x"
            }
         ], 
         "Role": "ZSO"
      }
   }, 
   {
      "1": {
         "BusinessInfo": {
            "Action": "http://docs.oasis-open.org/ebxml-msg/as4/200902/action", 
            "PayloadProfile": [
               {
                  "MIMEContentType": "application/xml", 
                  "PartName": "businessdocument"
               }
            ], 
            "Service": "A02"
         }, 
         "Protocol": {
            "Address": "https://et14.eu/as4", 
            "SOAPVersion": "1.2"
         }, 
         "Security": {
            "PModeAuthorize": false
         }
      }, 
      "Agreement": "http://entsog.eu/communication/agreements/21X-EU-C-A0A0A-C/21X-EU-M-A0A0A-M/1", 
      "Initiator": {
         "Party": [
            {
               "ID": "21X-EU-C-A0A0A-C", 
               "type": "http://www.entsoe.eu/eic-codes/eic-party-codes-x"
            }
         ], 
         "Role": "ZSO"
      }, 
      "MEP": "http://docs.oasis-open.org/ebxml-msg/ebms/v3.0/ns/core/200704/oneWay", 
      "MEPBinding": "http://docs.oasis-open.org/ebxml-msg/ebms/v3.0/ns/core/200704/push", 
      "Responder": {
         "Party": [
            {
               "ID": "21X-EU-M-A0A0A-M", 
               "type": "http://www.entsoe.eu/eic-codes/eic-party-codes-x"
            }
         ], 
         "Role": "ZSO"
      }
   }, 
   {
      "1": {
         "BusinessInfo": {
            "Action": "http://docs.oasis-open.org/ebxml-msg/as4/200902/action", 
            "PayloadProfile": [
               {
                  "MIMEContentType": "application/xml", 
                  "PartName": "businessdocument"
               }
            ], 
            "Service": "A02"
         }, 
         "Protocol": {
            "Address": "https://et14.eu/as4", 
            "SOAPVersion": "1.2"
         }, 
         "Security": {
            "PModeAuthorize": false
         }
      }, 
      "Agreement": "http://entsog.eu/communication/agreements/21X-EU-C-A0A0A-C/21X-EU-M-A0A0A-M/1", 
      "Initiator": {
         "Party": [
            {
               "ID": "21X-EU-C-A0A0A-C", 
               "type": "http://www.entsoe.eu/eic-codes/eic-party-codes-x"
            }
         ], 
         "Role": "ZSO"
      }, 
      "MEP": "http://docs.oasis-open.org/ebxml-msg/ebms/v3.0/ns/core/200704/oneWay", 
      "MEPBinding": "http://docs.oasis-open.org/ebxml-msg/ebms/v3.0/ns/core/200704/push", 
      "Responder": {
         "Party": [
            {
               "ID": "21X-EU-M-A0A0A-M", 
               "type": "http://www.entsoe.eu/eic-codes/eic-party-codes-x"
            }
         ], 
         "Role": "ZSO"
      }
   }, 
   {
      "1": {
         "BusinessInfo": {
            "Action": "http://docs.oasis-open.org/ebxml-msg/as4/200902/action", 
            "PayloadProfile": [
               {
                  "MIMEContentType": "application/xml", 
                  "PartName": "businessdocument"
               }
            ], 
            "Service": "A02"
         }, 
         "Protocol": {
            "Address": "https://et14.eu/as4", 
            "SOAPVersion": "1.2"
         }, 
         "Security": {
            "PModeAuthorize": false
         }
      }, 
      "Agreement": "http://entsog.eu/communication/agreements/21X-EU-C-A0A0A-C/21X-EU-M-A0A0A-M/1", 
      "Initiator": {
         "Party": [
            {
               "ID": "21X-EU-C-A0A0A-C", 
               "type": "http://www.entsoe.eu/eic-codes/eic-party-codes-x"
            }
         ], 
         "Role": "ZSO"
      }, 
      "MEP": "http://docs.oasis-open.org/ebxml-msg/ebms/v3.0/ns/core/200704/oneWay", 
      "MEPBinding": "http://docs.oasis-open.org/ebxml-msg/ebms/v3.0/ns/core/200704/push", 
      "Responder": {
         "Party": [
            {
               "ID": "21X-EU-M-A0A0A-M", 
               "type": "http://www.entsoe.eu/eic-codes/eic-party-codes-x"
            }
         ], 
         "Role": "ZSO"
      }
   }, 
   {
      "1": {
         "BusinessInfo": {
            "Action": "http://docs.oasis-open.org/ebxml-msg/as4/200902/action", 
            "PayloadProfile": [
               {
                  "MIMEContentType": "application/xml", 
                  "PartName": "businessdocument"
               }
            ], 
            "Service": "A02"
         }, 
         "Protocol": {
            "Address": "https://et14.eu/as4", 
            "SOAPVersion": "1.2"
         }, 
         "Security": {
            "PModeAuthorize": false
         }
      }, 
      "Agreement": "http://entsog.eu/communication/agreements/21X-EU-C-A0A0A-C/21X-EU-M-A0A0A-M/1", 
      "Initiator": {
         "Party": [
            {
               "ID": "21X-EU-C-A0A0A-C", 
               "type": "http://www.entsoe.eu/eic-codes/eic-party-codes-x"
            }
         ], 
         "Role": "ZSO"
      }, 
      "MEP": "http://docs.oasis-open.org/ebxml-msg/ebms/v3.0/ns/core/200704/oneWay", 
      "MEPBinding": "http://docs.oasis-open.org/ebxml-msg/ebms/v3.0/ns/core/200704/push", 
      "Responder": {
         "Party": [
            {
               "ID": "21X-EU-M-A0A0A-M", 
               "type": "http://www.entsoe.eu/eic-codes/eic-party-codes-x"
            }
         ], 
         "Role": "ZSO"
      }
   }, 
   {
      "1": {
         "BusinessInfo": {
            "Action": "http://docs.oasis-open.org/ebxml-msg/as4/200902/action", 
            "PayloadProfile": [
               {
                  "MIMEContentType": "application/xml", 
                  "PartName": "businessdocument"
               }
            ], 
            "Service": "A02"
         }, 
         "Protocol": {
            "Address": "https://et14.eu/as4", 
            "SOAPVersion": "1.2"
         }, 
         "Security": {
            "PModeAuthorize": false
         }
      }, 
      "Agreement": "http://entsog.eu/communication/agreements/21X-EU-C-A0A0A-C/21X-EU-M-A0A0A-M/1", 
      "Initiator": {
         "Party": [
            {
               "ID": "21X-EU-C-A0A0A-C", 
               "type": "http://www.entsoe.eu/eic-codes/eic-party-codes-x"
            }
         ], 
         "Role": "ZSO"
      }, 
      "MEP": "http://docs.oasis-open.org/ebxml-msg/ebms/v3.0/ns/core/200704/oneWay", 
      "MEPBinding": "http://docs.oasis-open.org/ebxml-msg/ebms/v3.0/ns/core/200704/push", 
      "Responder": {
         "Party": [
            {
               "ID": "21X-EU-M-A0A0A-M", 
               "type": "http://www.entsoe.eu/eic-codes/eic-party-codes-x"
            }
         ], 
         "Role": "ZSO"
      }
   }, 
   {
      "1": {
         "BusinessInfo": {
            "Action": "http://docs.oasis-open.org/ebxml-msg/as4/200902/action", 
            "PayloadProfile": [
               {
                  "MIMEContentType": "application/xml", 
                  "PartName": "businessdocument"
               }
            ], 
            "Service": "A02"
         }, 
         "Protocol": {
            "Address": "https://tso3.eu/as4", 
            "SOAPVersion": "1.2"
         }, 
         "Security": {
            "PModeAuthorize": false
         }
      }, 
      "Agreement": "http://entsog.eu/communication/agreements/21X-EU-C-A0A0A-C/21X-EU-M-A0A0A-M/1", 
      "Initiator": {
         "Party": [
            {
               "ID": "21X-EU-M-A0A0A-M", 
               "type": "http://www.entsoe.eu/eic-codes/eic-party-codes-x"
            }
         ], 
         "Role": "ZSO"
      }, 
      "MEP": "http://docs.oasis-open.org/ebxml-msg/ebms/v3.0/ns/core/200704/oneWay", 
      "MEPBinding": "http://docs.oasis-open.org/ebxml-msg/ebms/v3.0/ns/core/200704/push", 
      "Responder": {
         "Party": [
            {
               "ID": "21X-EU-C-A0A0A-C", 
               "type": "http://www.entsoe.eu/eic-codes/eic-party-codes-x"
            }
         ], 
         "Role": "ZSO"
      }
   }, 
   {
      "1": {
         "BusinessInfo": {
            "Action": "http://docs.oasis-open.org/ebxml-msg/as4/200902/action", 
            "PayloadProfile": [
               {
                  "MIMEContentType": "application/xml", 
                  "PartName": "businessdocument"
               }
            ], 
            "Service": "A02"
         }, 
         "Protocol": {
            "Address": "https://tso3.eu/as4", 
            "SOAPVersion": "1.2"
         }, 
         "Security": {
            "PModeAuthorize": false
         }
      }, 
      "Agreement": "http://entsog.eu/communication/agreements/21X-EU-C-A0A0A-C/21X-EU-M-A0A0A-M/1", 
      "Initiator": {
         "Party": [
            {
               "ID": "21X-EU-M-A0A0A-M", 
               "type": "http://www.entsoe.eu/eic-codes/eic-party-codes-x"
            }
         ], 
         "Role": "ZSO"
      }, 
      "MEP": "http://docs.oasis-open.org/ebxml-msg/ebms/v3.0/ns/core/200704/oneWay", 
      "MEPBinding": "http://docs.oasis-open.org/ebxml-msg/ebms/v3.0/ns/core/200704/push", 
      "Responder": {
         "Party": [
            {
               "ID": "21X-EU-C-A0A0A-C", 
               "type": "http://www.entsoe.eu/eic-codes/eic-party-codes-x"
            }
         ], 
         "Role": "ZSO"
      }
   }, 
   {
      "1": {
         "BusinessInfo": {
            "Action": "http://docs.oasis-open.org/ebxml-msg/as4/200902/action", 
            "PayloadProfile": [
               {
                  "MIMEContentType": "application/xml", 
                  "PartName": "businessdocument"
               }
            ], 
            "Service": "A02"
         }, 
         "Protocol": {
            "Address": "https://tso3.eu/as4", 
            "SOAPVersion": "1.2"
         }, 
         "Security": {
            "PModeAuthorize": false
         }
      }, 
      "Agreement": "http://entsog.eu/communication/agreements/21X-EU-C-A0A0A-C/21X-EU-M-A0A0A-M/1", 
      "Initiator": {
         "Party": [
            {
               "ID": "21X-EU-M-A0A0A-M", 
               "type": "http://www.entsoe.eu/eic-codes/eic-party-codes-x"
            }
         ], 
         "Role": "ZSO"
      }, 
      "MEP": "http://docs.oasis-open.org/ebxml-msg/ebms/v3.0/ns/core/200704/oneWay", 
      "MEPBinding": "http://docs.oasis-open.org/ebxml-msg/ebms/v3.0/ns/core/200704/push", 
      "Responder": {
         "Party": [
            {
               "ID": "21X-EU-C-A0A0A-C", 
               "type": "http://www.entsoe.eu/eic-codes/eic-party-codes-x"
            }
         ], 
         "Role": "ZSO"
      }
   }, 
   {
      "1": {
         "BusinessInfo": {
            "Action": "http://docs.oasis-open.org/ebxml-msg/as4/200902/action", 
            "PayloadProfile": [
               {
                  "MIMEContentType": "application/xml", 
                  "PartName": "businessdocument"
               }
            ], 
            "Service": "A02"
         }, 
         "Protocol": {
            "Address": "https://tso3.eu/as4", 
            "SOAPVersion": "1.2"
         }, 
         "Security": {
            "PModeAuthorize": false
         }
      }, 
      "Agreement": "http://entsog.eu/communication/agreements/21X-EU-C-A0A0A-C/21X-EU-M-A0A0A-M/1", 
      "Initiator": {
         "Party": [
            {
               "ID": "21X-EU-M-A0A0A-M", 
               "type": "http://www.entsoe.eu/eic-codes/eic-party-codes-x"
            }
         ], 
         "Role": "ZSO"
      }, 
      "MEP": "http://docs.oasis-open.org/ebxml-msg/ebms/v3.0/ns/core/200704/oneWay", 
      "MEPBinding": "http://docs.oasis-open.org/ebxml-msg/ebms/v3.0/ns/core/200704/push", 
      "Responder": {
         "Party": [
            {
               "ID": "21X-EU-C-A0A0A-C", 
               "type": "http://www.entsoe.eu/eic-codes/eic-party-codes-x"
            }
         ], 
         "Role": "ZSO"
      }
   }, 
   {
      "1": {
         "BusinessInfo": {
            "Action": "http://docs.oasis-open.org/ebxml-msg/as4/200902/action", 
            "PayloadProfile": [
               {
                  "MIMEContentType": "application/xml", 
                  "PartName": "businessdocument"
               }
            ], 
            "Service": "A02"
         }, 
         "Protocol": {
            "Address": "https://tso3.eu/as4", 
            "SOAPVersion": "1.2"
         }, 
         "Security": {
            "PModeAuthorize": false
         }
      }, 
      "Agreement": "http://entsog.eu/communication/agreements/21X-EU-C-A0A0A-C/21X-EU-M-A0A0A-M/1", 
      "Initiator": {
         "Party": [
            {
               "ID": "21X-EU-M-A0A0A-M", 
               "type": "http://www.entsoe.eu/eic-codes/eic-party-codes-x"
            }
         ], 
         "Role": "ZSO"
      }, 
      "MEP": "http://docs.oasis-open.org/ebxml-msg/ebms/v3.0/ns/core/200704/oneWay", 
      "MEPBinding": "http://docs.oasis-open.org/ebxml-msg/ebms/v3.0/ns/core/200704/push", 
      "Responder": {
         "Party": [
            {
               "ID": "21X-EU-C-A0A0A-C", 
               "type": "http://www.entsoe.eu/eic-codes/eic-party-codes-x"
            }
         ], 
         "Role": "ZSO"
      }
   }, 
   {
      "1": {
         "BusinessInfo": {
            "Action": "http://docs.oasis-open.org/ebxml-msg/as4/200902/action", 
            "PayloadProfile": [
               {
                  "MIMEContentType": "application/xml", 
                  "PartName": "businessdocument"
               }
            ], 
            "Service": "A02"
         }, 
         "Protocol": {
            "Address": "https://tso3.eu/as4", 
            "SOAPVersion": "1.2"
         }, 
         "Security": {
            "PModeAuthorize": false
         }
      }, 
      "Agreement": "http://entsog.eu/communication/agreements/21X-EU-C-A0A0A-C/21X-EU-M-A0A0A-M/1", 
      "Initiator": {
         "Party": [
            {
               "ID": "21X-EU-M-A0A0A-M", 
               "type": "http://www.entsoe.eu/eic-codes/eic-party-codes-x"
            }
         ], 
         "Role": "ZSO"
      }, 
      "MEP": "http://docs.oasis-open.org/ebxml-msg/ebms/v3.0/ns/core/200704/oneWay", 
      "MEPBinding": "http://docs.oasis-open.org/ebxml-msg/ebms/v3.0/ns/core/200704/push", 
      "Responder": {
         "Party": [
            {
               "ID": "21X-EU-C-A0A0A-C", 
               "type": "http://www.entsoe.eu/eic-codes/eic-party-codes-x"
            }
         ], 
         "Role": "ZSO"
      }
   }, 
   {
      "1": {
         "BusinessInfo": {
            "Action": "http://docs.oasis-open.org/ebxml-msg/as4/200902/action", 
            "PayloadProfile": [
               {
                  "MIMEContentType": "application/xml", 
                  "PartName": "businessdocument"
               }
            ], 
            "Service": "A02"
         }, 
         "Protocol": {
            "Address": "https://tso3.eu/as4", 
            "SOAPVersion": "1.2"
         }, 
         "Security": {
            "PModeAuthorize": false
         }
      }, 
      "Agreement": "http://entsog.eu/communication/agreements/21X-EU-C-A0A0A-C/21X-EU-M-A0A0A-M/1", 
      "Initiator": {
         "Party": [
            {
               "ID": "21X-EU-M-A0A0A-M", 
               "type": "http://www.entsoe.eu/eic-codes/eic-party-codes-x"
            }
         ], 
         "Role": "ZSO"
      }, 
      "MEP": "http://docs.oasis-open.org/ebxml-msg/ebms/v3.0/ns/core/200704/oneWay", 
      "MEPBinding": "http://docs.oasis-open.org/ebxml-msg/ebms/v3.0/ns/core/200704/push", 
      "Responder": {
         "Party": [
            {
               "ID": "21X-EU-C-A0A0A-C", 
               "type": "http://www.entsoe.eu/eic-codes/eic-party-codes-x"
            }
         ], 
         "Role": "ZSO"
      }
   }, 
   {
      "1": {
         "BusinessInfo": {
            "Action": "http://docs.oasis-open.org/ebxml-msg/as4/200902/action", 
            "PayloadProfile": [
               {
                  "MIMEContentType": "application/xml", 
                  "PartName": "businessdocument"
               }
            ], 
            "Service": "A02"
         }, 
         "Protocol": {
            "Address": "https://tso3.eu/as4", 
            "SOAPVersion": "1.2"
         }, 
         "Security": {
            "PModeAuthorize": false
         }
      }, 
      "Agreement": "http://entsog.eu/communication/agreements/21X-EU-C-A0A0A-C/21X-EU-M-A0A0A-M/1", 
      "Initiator": {
         "Party": [
            {
               "ID": "21X-EU-M-A0A0A-M", 
               "type": "http://www.entsoe.eu/eic-codes/eic-party-codes-x"
            }
         ], 
         "Role": "ZSO"
      }, 
      "MEP": "http://docs.oasis-open.org/ebxml-msg/ebms/v3.0/ns/core/200704/oneWay", 
      "MEPBinding": "http://docs.oasis-open.org/ebxml-msg/ebms/v3.0/ns/core/200704/push", 
      "Responder": {
         "Party": [
            {
               "ID": "21X-EU-C-A0A0A-C", 
               "type": "http://www.entsoe.eu/eic-codes/eic-party-codes-x"
            }
         ], 
         "Role": "ZSO"
      }
   }, 
   {
      "1": {
         "BusinessInfo": {
            "Action": "http://docs.oasis-open.org/ebxml-msg/as4/200902/action", 
            "PayloadProfile": [
               {
                  "MIMEContentType": "application/xml", 
                  "PartName": "businessdocument"
               }
            ], 
            "Service": "A02"
         }, 
         "Protocol": {
            "Address": "https://tso3.eu/as4", 
            "SOAPVersion": "1.2"
         }, 
         "Security": {
            "PModeAuthorize": false
         }
      }, 
      "Agreement": "http://entsog.eu/communication/agreements/21X-EU-C-A0A0A-C/21X-EU-M-A0A0A-M/1", 
      "Initiator": {
         "Party": [
            {
               "ID": "21X-EU-M-A0A0A-M", 
               "type": "http://www.entsoe.eu/eic-codes/eic-party-codes-x"
            }
         ], 
         "Role": "ZSO"
      }, 
      "MEP": "http://docs.oasis-open.org/ebxml-msg/ebms/v3.0/ns/core/200704/oneWay", 
      "MEPBinding": "http://docs.oasis-open.org/ebxml-msg/ebms/v3.0/ns/core/200704/push", 
      "Responder": {
         "Party": [
            {
               "ID": "21X-EU-C-A0A0A-C", 
               "type": "http://www.entsoe.eu/eic-codes/eic-party-codes-x"
            }
         ], 
         "Role": "ZSO"
      }
   }, 
   {
      "1": {
         "BusinessInfo": {
            "Action": "http://docs.oasis-open.org/ebxml-msg/as4/200902/action", 
            "PayloadProfile": [
               {
                  "MIMEContentType": "application/xml", 
                  "PartName": "businessdocument"
               }
            ], 
            "Service": "A02"
         }, 
         "Protocol": {
            "Address": "https://tso3.eu/as4", 
            "SOAPVersion": "1.2"
         }, 
         "Security": {
            "PModeAuthorize": false
         }
      }, 
      "Agreement": "http://entsog.eu/communication/agreements/21X-EU-C-A0A0A-C/21X-EU-M-A0A0A-M/1", 
      "Initiator": {
         "Party": [
            {
               "ID": "21X-EU-M-A0A0A-M", 
               "type": "http://www.entsoe.eu/eic-codes/eic-party-codes-x"
            }
         ], 
         "Role": "ZSO"
      }, 
      "MEP": "http://docs.oasis-open.org/ebxml-msg/ebms/v3.0/ns/core/200704/oneWay", 
      "MEPBinding": "http://docs.oasis-open.org/ebxml-msg/ebms/v3.0/ns/core/200704/push", 
      "Responder": {
         "Party": [
            {
               "ID": "21X-EU-C-A0A0A-C", 
               "type": "http://www.entsoe.eu/eic-codes/eic-party-codes-x"
            }
         ], 
         "Role": "ZSO"
      }
   }, 
   {
      "1": {
         "BusinessInfo": {
            "Action": "http://docs.oasis-open.org/ebxml-msg/as4/200902/action", 
            "PayloadProfile": [
               {
                  "MIMEContentType": "application/xml", 
                  "PartName": "businessdocument"
               }
            ], 
            "Service": "A02"
         }, 
         "Protocol": {
            "Address": "https://tso3.eu/as4", 
            "SOAPVersion": "1.2"
         }, 
         "Security": {
            "PModeAuthorize": false
         }
      }, 
      "Agreement": "http://entsog.eu/communication/agreements/21X-EU-C-A0A0A-C/21X-EU-M-A0A0A-M/1", 
      "Initiator": {
         "Party": [
            {
               "ID": "21X-EU-M-A0A0A-M", 
               "type": "http://www.entsoe.eu/eic-codes/eic-party-codes-x"
            }
         ], 
         "Role": "ZSO"
      }, 
      "MEP": "http://docs.oasis-open.org/ebxml-msg/ebms/v3.0/ns/core/200704/oneWay", 
      "MEPBinding": "http://docs.oasis-open.org/ebxml-msg/ebms/v3.0/ns/core/200704/push", 
      "Responder": {
         "Party": [
            {
               "ID": "21X-EU-C-A0A0A-C", 
               "type": "http://www.entsoe.eu/eic-codes/eic-party-codes-x"
            }
         ], 
         "Role": "ZSO"
      }
   }, 
   {
      "1": {
         "BusinessInfo": {
            "Action": "http://docs.oasis-open.org/ebxml-msg/as4/200902/action", 
            "PayloadProfile": [
               {
                  "MIMEContentType": "application/xml", 
                  "PartName": "businessdocument"
               }
            ], 
            "Service": "A02"
         }, 
         "Protocol": {
            "Address": "https://tso3.eu/as4", 
            "SOAPVersion": "1.2"
         }, 
         "Security": {
            "PModeAuthorize": false
         }
      }, 
      "Agreement": "http://entsog.eu/communication/agreements/21X-EU-C-A0A0A-C/21X-EU-M-A0A0A-M/1", 
      "Initiator": {
         "Party": [
            {
               "ID": "21X-EU-M-A0A0A-M", 
               "type": "http://www.entsoe.eu/eic-codes/eic-party-codes-x"
            }
         ], 
         "Role": "ZSO"
      }, 
      "MEP": "http://docs.oasis-open.org/ebxml-msg/ebms/v3.0/ns/core/200704/oneWay", 
      "MEPBinding": "http://docs.oasis-open.org/ebxml-msg/ebms/v3.0/ns/core/200704/push", 
      "Responder": {
         "Party": [
            {
               "ID": "21X-EU-C-A0A0A-C", 
               "type": "http://www.entsoe.eu/eic-codes/eic-party-codes-x"
            }
         ], 
         "Role": "ZSO"
      }
   }, 
   {
      "1": {
         "BusinessInfo": {
            "Action": "http://docs.oasis-open.org/ebxml-msg/as4/200902/action", 
            "PayloadProfile": [
               {
                  "MIMEContentType": "application/xml", 
                  "PartName": "businessdocument"
               }
            ], 
            "Service": "A08"
         }, 
         "Protocol": {
            "Address": "https://et14.eu/as4", 
            "SOAPVersion": "1.2"
         }, 
         "Security": {
            "PModeAuthorize": false
         }
      }, 
      "Agreement": "http://entsog.eu/communication/agreements/21X-EU-C-A0A0A-C/21X-EU-M-A0A0A-M/1", 
      "Initiator": {
         "Party": [
            {
               "ID": "21X-EU-C-A0A0A-C", 
               "type": "http://www.entsoe.eu/eic-codes/eic-party-codes-x"
            }
         ], 
         "Role": "ZSO"
      }, 
      "MEP": "http://docs.oasis-open.org/ebxml-msg/ebms/v3.0/ns/core/200704/oneWay", 
      "MEPBinding": "http://docs.oasis-open.org/ebxml-msg/ebms/v3.0/ns/core/200704/push", 
      "Responder": {
         "Party": [
            {
               "ID": "21X-EU-M-A0A0A-M", 
               "type": "http://www.entsoe.eu/eic-codes/eic-party-codes-x"
            }
         ], 
         "Role": "ZSO"
      }
   }, 
   {
      "1": {
         "BusinessInfo": {
            "Action": "http://docs.oasis-open.org/ebxml-msg/as4/200902/action", 
            "PayloadProfile": [
               {
                  "MIMEContentType": "application/xml", 
                  "PartName": "businessdocument"
               }
            ], 
            "Service": "A08"
         }, 
         "Protocol": {
            "Address": "https://tso3.eu/as4", 
            "SOAPVersion": "1.2"
         }, 
         "Security": {
            "PModeAuthorize": false
         }
      }, 
      "Agreement": "http://entsog.eu/communication/agreements/21X-EU-C-A0A0A-C/21X-EU-M-A0A0A-M/1", 
      "Initiator": {
         "Party": [
            {
               "ID": "21X-EU-M-A0A0A-M", 
               "type": "http://www.entsoe.eu/eic-codes/eic-party-codes-x"
            }
         ], 
         "Role": "ZSO"
      }, 
      "MEP": "http://docs.oasis-open.org/ebxml-msg/ebms/v3.0/ns/core/200704/oneWay", 
      "MEPBinding": "http://docs.oasis-open.org/ebxml-msg/ebms/v3.0/ns/core/200704/push", 
      "Responder": {
         "Party": [
            {
               "ID": "21X-EU-C-A0A0A-C", 
               "type": "http://www.entsoe.eu/eic-codes/eic-party-codes-x"
            }
         ], 
         "Role": "ZSO"
      }
   }, 
   {
      "1": {
         "BusinessInfo": {
            "Action": "http://docs.oasis-open.org/ebxml-msg/as4/200902/action", 
            "PayloadProfile": [
               {
                  "MIMEContentType": "application/xml", 
                  "PartName": "businessdocument"
               }
            ], 
            "Service": "A06"
         }, 
         "Protocol": {
            "Address": "https://et14.eu/as4", 
            "SOAPVersion": "1.2"
         }, 
         "Security": {
            "PModeAuthorize": false
         }
      }, 
      "Agreement": "http://entsog.eu/communication/agreements/21X-EU-C-A0A0A-C/21X-EU-M-A0A0A-M/1", 
      "Initiator": {
         "Party": [
            {
               "ID": "21X-EU-C-A0A0A-C", 
               "type": "http://www.entsoe.eu/eic-codes/eic-party-codes-x"
            }
         ], 
         "Role": "ZSO"
      }, 
      "MEP": "http://docs.oasis-open.org/ebxml-msg/ebms/v3.0/ns/core/200704/oneWay", 
      "MEPBinding": "http://docs.oasis-open.org/ebxml-msg/ebms/v3.0/ns/core/200704/push", 
      "Responder": {
         "Party": [
            {
               "ID": "21X-EU-M-A0A0A-M", 
               "type": "http://www.entsoe.eu/eic-codes/eic-party-codes-x"
            }
         ], 
         "Role": "ZSO"
      }
   }, 
   {
      "1": {
         "BusinessInfo": {
            "Action": "http://docs.oasis-open.org/ebxml-msg/as4/200902/action", 
            "PayloadProfile": [
               {
                  "MIMEContentType": "application/xml", 
                  "PartName": "businessdocument"
               }
            ], 
            "Service": "A06"
         }, 
         "Protocol": {
            "Address": "https://et14.eu/as4", 
            "SOAPVersion": "1.2"
         }, 
         "Security": {
            "PModeAuthorize": false
         }
      }, 
      "Agreement": "http://entsog.eu/communication/agreements/21X-EU-C-A0A0A-C/21X-EU-M-A0A0A-M/1", 
      "Initiator": {
         "Party": [
            {
               "ID": "21X-EU-C-A0A0A-C", 
               "type": "http://www.entsoe.eu/eic-codes/eic-party-codes-x"
            }
         ], 
         "Role": "ZSO"
      }, 
      "MEP": "http://docs.oasis-open.org/ebxml-msg/ebms/v3.0/ns/core/200704/oneWay", 
      "MEPBinding": "http://docs.oasis-open.org/ebxml-msg/ebms/v3.0/ns/core/200704/push", 
      "Responder": {
         "Party": [
            {
               "ID": "21X-EU-M-A0A0A-M", 
               "type": "http://www.entsoe.eu/eic-codes/eic-party-codes-x"
            }
         ], 
         "Role": "ZSO"
      }
   }, 
   {
      "1": {
         "BusinessInfo": {
            "Action": "http://docs.oasis-open.org/ebxml-msg/as4/200902/action", 
            "PayloadProfile": [
               {
                  "MIMEContentType": "application/xml", 
                  "PartName": "businessdocument"
               }
            ], 
            "Service": "A06"
         }, 
         "Protocol": {
            "Address": "https://et14.eu/as4", 
            "SOAPVersion": "1.2"
         }, 
         "Security": {
            "PModeAuthorize": false
         }
      }, 
      "Agreement": "http://entsog.eu/communication/agreements/21X-EU-C-A0A0A-C/21X-EU-M-A0A0A-M/1", 
      "Initiator": {
         "Party": [
            {
               "ID": "21X-EU-C-A0A0A-C", 
               "type": "http://www.entsoe.eu/eic-codes/eic-party-codes-x"
            }
         ], 
         "Role": "ZSO"
      }, 
      "MEP": "http://docs.oasis-open.org/ebxml-msg/ebms/v3.0/ns/core/200704/oneWay", 
      "MEPBinding": "http://docs.oasis-open.org/ebxml-msg/ebms/v3.0/ns/core/200704/push", 
      "Responder": {
         "Party": [
            {
               "ID": "21X-EU-M-A0A0A-M", 
               "type": "http://www.entsoe.eu/eic-codes/eic-party-codes-x"
            }
         ], 
         "Role": "ZSO"
      }
   }, 
   {
      "1": {
         "BusinessInfo": {
            "Action": "http://docs.oasis-open.org/ebxml-msg/as4/200902/action", 
            "PayloadProfile": [
               {
                  "MIMEContentType": "application/xml", 
                  "PartName": "businessdocument"
               }
            ], 
            "Service": "A06"
         }, 
         "Protocol": {
            "Address": "https://tso3.eu/as4", 
            "SOAPVersion": "1.2"
         }, 
         "Security": {
            "PModeAuthorize": false
         }
      }, 
      "Agreement": "http://entsog.eu/communication/agreements/21X-EU-C-A0A0A-C/21X-EU-M-A0A0A-M/1", 
      "Initiator": {
         "Party": [
            {
               "ID": "21X-EU-M-A0A0A-M", 
               "type": "http://www.entsoe.eu/eic-codes/eic-party-codes-x"
            }
         ], 
         "Role": "ZSO"
      }, 
      "MEP": "http://docs.oasis-open.org/ebxml-msg/ebms/v3.0/ns/core/200704/oneWay", 
      "MEPBinding": "http://docs.oasis-open.org/ebxml-msg/ebms/v3.0/ns/core/200704/push", 
      "Responder": {
         "Party": [
            {
               "ID": "21X-EU-C-A0A0A-C", 
               "type": "http://www.entsoe.eu/eic-codes/eic-party-codes-x"
            }
         ], 
         "Role": "ZSO"
      }
   }, 
   {
      "1": {
         "BusinessInfo": {
            "Action": "http://docs.oasis-open.org/ebxml-msg/as4/200902/action", 
            "PayloadProfile": [
               {
                  "MIMEContentType": "application/xml", 
                  "PartName": "businessdocument"
               }
            ], 
            "Service": "A06"
         }, 
         "Protocol": {
            "Address": "https://tso3.eu/as4", 
            "SOAPVersion": "1.2"
         }, 
         "Security": {
            "PModeAuthorize": false
         }
      }, 
      "Agreement": "http://entsog.eu/communication/agreements/21X-EU-C-A0A0A-C/21X-EU-M-A0A0A-M/1", 
      "Initiator": {
         "Party": [
            {
               "ID": "21X-EU-M-A0A0A-M", 
               "type": "http://www.entsoe.eu/eic-codes/eic-party-codes-x"
            }
         ], 
         "Role": "ZSO"
      }, 
      "MEP": "http://docs.oasis-open.org/ebxml-msg/ebms/v3.0/ns/core/200704/oneWay", 
      "MEPBinding": "http://docs.oasis-open.org/ebxml-msg/ebms/v3.0/ns/core/200704/push", 
      "Responder": {
         "Party": [
            {
               "ID": "21X-EU-C-A0A0A-C", 
               "type": "http://www.entsoe.eu/eic-codes/eic-party-codes-x"
            }
         ], 
         "Role": "ZSO"
      }
   }, 
   {
      "1": {
         "BusinessInfo": {
            "Action": "http://docs.oasis-open.org/ebxml-msg/as4/200902/action", 
            "PayloadProfile": [
               {
                  "MIMEContentType": "application/xml", 
                  "PartName": "businessdocument"
               }
            ], 
            "Service": "A06"
         }, 
         "Protocol": {
            "Address": "https://tso3.eu/as4", 
            "SOAPVersion": "1.2"
         }, 
         "Security": {
            "PModeAuthorize": false
         }
      }, 
      "Agreement": "http://entsog.eu/communication/agreements/21X-EU-C-A0A0A-C/21X-EU-M-A0A0A-M/1", 
      "Initiator": {
         "Party": [
            {
               "ID": "21X-EU-M-A0A0A-M", 
               "type": "http://www.entsoe.eu/eic-codes/eic-party-codes-x"
            }
         ], 
         "Role": "ZSO"
      }, 
      "MEP": "http://docs.oasis-open.org/ebxml-msg/ebms/v3.0/ns/core/200704/oneWay", 
      "MEPBinding": "http://docs.oasis-open.org/ebxml-msg/ebms/v3.0/ns/core/200704/push", 
      "Responder": {
         "Party": [
            {
               "ID": "21X-EU-C-A0A0A-C", 
               "type": "http://www.entsoe.eu/eic-codes/eic-party-codes-x"
            }
         ], 
         "Role": "ZSO"
      }
   }, 
   {
      "1": {
         "BusinessInfo": {
            "Action": "http://docs.oasis-open.org/ebxml-msg/as4/200902/action", 
            "PayloadProfile": [
               {
                  "MIMEContentType": "application/xml", 
                  "PartName": "businessdocument"
               }
            ], 
            "Service": "A07"
         }, 
         "Protocol": {
            "Address": "https://et14.eu/as4", 
            "SOAPVersion": "1.2"
         }, 
         "Security": {
            "PModeAuthorize": false
         }
      }, 
      "Agreement": "http://entsog.eu/communication/agreements/21X-EU-C-A0A0A-C/21X-EU-M-A0A0A-M/1", 
      "Initiator": {
         "Party": [
            {
               "ID": "21X-EU-C-A0A0A-C", 
               "type": "http://www.entsoe.eu/eic-codes/eic-party-codes-x"
            }
         ], 
         "Role": "ZSO"
      }, 
      "MEP": "http://docs.oasis-open.org/ebxml-msg/ebms/v3.0/ns/core/200704/oneWay", 
      "MEPBinding": "http://docs.oasis-open.org/ebxml-msg/ebms/v3.0/ns/core/200704/push", 
      "Responder": {
         "Party": [
            {
               "ID": "21X-EU-M-A0A0A-M", 
               "type": "http://www.entsoe.eu/eic-codes/eic-party-codes-x"
            }
         ], 
         "Role": "ZSO"
      }
   }, 
   {
      "1": {
         "BusinessInfo": {
            "Action": "http://docs.oasis-open.org/ebxml-msg/as4/200902/action", 
            "PayloadProfile": [
               {
                  "MIMEContentType": "application/xml", 
                  "PartName": "businessdocument"
               }
            ], 
            "Service": "A07"
         }, 
         "Protocol": {
            "Address": "https://et14.eu/as4", 
            "SOAPVersion": "1.2"
         }, 
         "Security": {
            "PModeAuthorize": false
         }
      }, 
      "Agreement": "http://entsog.eu/communication/agreements/21X-EU-C-A0A0A-C/21X-EU-M-A0A0A-M/1", 
      "Initiator": {
         "Party": [
            {
               "ID": "21X-EU-C-A0A0A-C", 
               "type": "http://www.entsoe.eu/eic-codes/eic-party-codes-x"
            }
         ], 
         "Role": "ZSO"
      }, 
      "MEP": "http://docs.oasis-open.org/ebxml-msg/ebms/v3.0/ns/core/200704/oneWay", 
      "MEPBinding": "http://docs.oasis-open.org/ebxml-msg/ebms/v3.0/ns/core/200704/push", 
      "Responder": {
         "Party": [
            {
               "ID": "21X-EU-M-A0A0A-M", 
               "type": "http://www.entsoe.eu/eic-codes/eic-party-codes-x"
            }
         ], 
         "Role": "ZSO"
      }
   }, 
   {
      "1": {
         "BusinessInfo": {
            "Action": "http://docs.oasis-open.org/ebxml-msg/as4/200902/action", 
            "PayloadProfile": [
               {
                  "MIMEContentType": "application/xml", 
                  "PartName": "businessdocument"
               }
            ], 
            "Service": "A07"
         }, 
         "Protocol": {
            "Address": "https://et14.eu/as4", 
            "SOAPVersion": "1.2"
         }, 
         "Security": {
            "PModeAuthorize": false
         }
      }, 
      "Agreement": "http://entsog.eu/communication/agreements/21X-EU-C-A0A0A-C/21X-EU-M-A0A0A-M/1", 
      "Initiator": {
         "Party": [
            {
               "ID": "21X-EU-C-A0A0A-C", 
               "type": "http://www.entsoe.eu/eic-codes/eic-party-codes-x"
            }
         ], 
         "Role": "ZSO"
      }, 
      "MEP": "http://docs.oasis-open.org/ebxml-msg/ebms/v3.0/ns/core/200704/oneWay", 
      "MEPBinding": "http://docs.oasis-open.org/ebxml-msg/ebms/v3.0/ns/core/200704/push", 
      "Responder": {
         "Party": [
            {
               "ID": "21X-EU-M-A0A0A-M", 
               "type": "http://www.entsoe.eu/eic-codes/eic-party-codes-x"
            }
         ], 
         "Role": "ZSO"
      }
   }, 
   {
      "1": {
         "BusinessInfo": {
            "Action": "http://docs.oasis-open.org/ebxml-msg/as4/200902/action", 
            "PayloadProfile": [
               {
                  "MIMEContentType": "application/xml", 
                  "PartName": "businessdocument"
               }
            ], 
            "Service": "A07"
         }, 
         "Protocol": {
            "Address": "https://et14.eu/as4", 
            "SOAPVersion": "1.2"
         }, 
         "Security": {
            "PModeAuthorize": false
         }
      }, 
      "Agreement": "http://entsog.eu/communication/agreements/21X-EU-C-A0A0A-C/21X-EU-M-A0A0A-M/1", 
      "Initiator": {
         "Party": [
            {
               "ID": "21X-EU-C-A0A0A-C", 
               "type": "http://www.entsoe.eu/eic-codes/eic-party-codes-x"
            }
         ], 
         "Role": "ZSO"
      }, 
      "MEP": "http://docs.oasis-open.org/ebxml-msg/ebms/v3.0/ns/core/200704/oneWay", 
      "MEPBinding": "http://docs.oasis-open.org/ebxml-msg/ebms/v3.0/ns/core/200704/push", 
      "Responder": {
         "Party": [
            {
               "ID": "21X-EU-M-A0A0A-M", 
               "type": "http://www.entsoe.eu/eic-codes/eic-party-codes-x"
            }
         ], 
         "Role": "ZSO"
      }
   }, 
   {
      "1": {
         "BusinessInfo": {
            "Action": "http://docs.oasis-open.org/ebxml-msg/as4/200902/action", 
            "PayloadProfile": [
               {
                  "MIMEContentType": "application/xml", 
                  "PartName": "businessdocument"
               }
            ], 
            "Service": "A07"
         }, 
         "Protocol": {
            "Address": "https://et14.eu/as4", 
            "SOAPVersion": "1.2"
         }, 
         "Security": {
            "PModeAuthorize": false
         }
      }, 
      "Agreement": "http://entsog.eu/communication/agreements/21X-EU-C-A0A0A-C/21X-EU-M-A0A0A-M/1", 
      "Initiator": {
         "Party": [
            {
               "ID": "21X-EU-C-A0A0A-C", 
               "type": "http://www.entsoe.eu/eic-codes/eic-party-codes-x"
            }
         ], 
         "Role": "ZSO"
      }, 
      "MEP": "http://docs.oasis-open.org/ebxml-msg/ebms/v3.0/ns/core/200704/oneWay", 
      "MEPBinding": "http://docs.oasis-open.org/ebxml-msg/ebms/v3.0/ns/core/200704/push", 
      "Responder": {
         "Party": [
            {
               "ID": "21X-EU-M-A0A0A-M", 
               "type": "http://www.entsoe.eu/eic-codes/eic-party-codes-x"
            }
         ], 
         "Role": "ZSO"
      }
   }, 
   {
      "1": {
         "BusinessInfo": {
            "Action": "http://docs.oasis-open.org/ebxml-msg/as4/200902/action", 
            "PayloadProfile": [
               {
                  "MIMEContentType": "application/xml", 
                  "PartName": "businessdocument"
               }
            ], 
            "Service": "A07"
         }, 
         "Protocol": {
            "Address": "https://et14.eu/as4", 
            "SOAPVersion": "1.2"
         }, 
         "Security": {
            "PModeAuthorize": false
         }
      }, 
      "Agreement": "http://entsog.eu/communication/agreements/21X-EU-C-A0A0A-C/21X-EU-M-A0A0A-M/1", 
      "Initiator": {
         "Party": [
            {
               "ID": "21X-EU-C-A0A0A-C", 
               "type": "http://www.entsoe.eu/eic-codes/eic-party-codes-x"
            }
         ], 
         "Role": "ZSO"
      }, 
      "MEP": "http://docs.oasis-open.org/ebxml-msg/ebms/v3.0/ns/core/200704/oneWay", 
      "MEPBinding": "http://docs.oasis-open.org/ebxml-msg/ebms/v3.0/ns/core/200704/push", 
      "Responder": {
         "Party": [
            {
               "ID": "21X-EU-M-A0A0A-M", 
               "type": "http://www.entsoe.eu/eic-codes/eic-party-codes-x"
            }
         ], 
         "Role": "ZSO"
      }
   }, 
   {
      "1": {
         "BusinessInfo": {
            "Action": "http://docs.oasis-open.org/ebxml-msg/as4/200902/action", 
            "PayloadProfile": [
               {
                  "MIMEContentType": "application/xml", 
                  "PartName": "businessdocument"
               }
            ], 
            "Service": "A07"
         }, 
         "Protocol": {
            "Address": "https://et14.eu/as4", 
            "SOAPVersion": "1.2"
         }, 
         "Security": {
            "PModeAuthorize": false
         }
      }, 
      "Agreement": "http://entsog.eu/communication/agreements/21X-EU-C-A0A0A-C/21X-EU-M-A0A0A-M/1", 
      "Initiator": {
         "Party": [
            {
               "ID": "21X-EU-C-A0A0A-C", 
               "type": "http://www.entsoe.eu/eic-codes/eic-party-codes-x"
            }
         ], 
         "Role": "ZSO"
      }, 
      "MEP": "http://docs.oasis-open.org/ebxml-msg/ebms/v3.0/ns/core/200704/oneWay", 
      "MEPBinding": "http://docs.oasis-open.org/ebxml-msg/ebms/v3.0/ns/core/200704/push", 
      "Responder": {
         "Party": [
            {
               "ID": "21X-EU-M-A0A0A-M", 
               "type": "http://www.entsoe.eu/eic-codes/eic-party-codes-x"
            }
         ], 
         "Role": "ZSO"
      }
   }, 
   {
      "1": {
         "BusinessInfo": {
            "Action": "http://docs.oasis-open.org/ebxml-msg/as4/200902/action", 
            "PayloadProfile": [
               {
                  "MIMEContentType": "application/xml", 
                  "PartName": "businessdocument"
               }
            ], 
            "Service": "A07"
         }, 
         "Protocol": {
            "Address": "https://tso3.eu/as4", 
            "SOAPVersion": "1.2"
         }, 
         "Security": {
            "PModeAuthorize": false
         }
      }, 
      "Agreement": "http://entsog.eu/communication/agreements/21X-EU-C-A0A0A-C/21X-EU-M-A0A0A-M/1", 
      "Initiator": {
         "Party": [
            {
               "ID": "21X-EU-M-A0A0A-M", 
               "type": "http://www.entsoe.eu/eic-codes/eic-party-codes-x"
            }
         ], 
         "Role": "ZSO"
      }, 
      "MEP": "http://docs.oasis-open.org/ebxml-msg/ebms/v3.0/ns/core/200704/oneWay", 
      "MEPBinding": "http://docs.oasis-open.org/ebxml-msg/ebms/v3.0/ns/core/200704/push", 
      "Responder": {
         "Party": [
            {
               "ID": "21X-EU-C-A0A0A-C", 
               "type": "http://www.entsoe.eu/eic-codes/eic-party-codes-x"
            }
         ], 
         "Role": "ZSO"
      }
   }, 
   {
      "1": {
         "BusinessInfo": {
            "Action": "http://docs.oasis-open.org/ebxml-msg/as4/200902/action", 
            "PayloadProfile": [
               {
                  "MIMEContentType": "application/xml", 
                  "PartName": "businessdocument"
               }
            ], 
            "Service": "A07"
         }, 
         "Protocol": {
            "Address": "https://tso3.eu/as4", 
            "SOAPVersion": "1.2"
         }, 
         "Security": {
            "PModeAuthorize": false
         }
      }, 
      "Agreement": "http://entsog.eu/communication/agreements/21X-EU-C-A0A0A-C/21X-EU-M-A0A0A-M/1", 
      "Initiator": {
         "Party": [
            {
               "ID": "21X-EU-M-A0A0A-M", 
               "type": "http://www.entsoe.eu/eic-codes/eic-party-codes-x"
            }
         ], 
         "Role": "ZSO"
      }, 
      "MEP": "http://docs.oasis-open.org/ebxml-msg/ebms/v3.0/ns/core/200704/oneWay", 
      "MEPBinding": "http://docs.oasis-open.org/ebxml-msg/ebms/v3.0/ns/core/200704/push", 
      "Responder": {
         "Party": [
            {
               "ID": "21X-EU-C-A0A0A-C", 
               "type": "http://www.entsoe.eu/eic-codes/eic-party-codes-x"
            }
         ], 
         "Role": "ZSO"
      }
   }, 
   {
      "1": {
         "BusinessInfo": {
            "Action": "http://docs.oasis-open.org/ebxml-msg/as4/200902/action", 
            "PayloadProfile": [
               {
                  "MIMEContentType": "application/xml", 
                  "PartName": "businessdocument"
               }
            ], 
            "Service": "A07"
         }, 
         "Protocol": {
            "Address": "https://tso3.eu/as4", 
            "SOAPVersion": "1.2"
         }, 
         "Security": {
            "PModeAuthorize": false
         }
      }, 
      "Agreement": "http://entsog.eu/communication/agreements/21X-EU-C-A0A0A-C/21X-EU-M-A0A0A-M/1", 
      "Initiator": {
         "Party": [
            {
               "ID": "21X-EU-M-A0A0A-M", 
               "type": "http://www.entsoe.eu/eic-codes/eic-party-codes-x"
            }
         ], 
         "Role": "ZSO"
      }, 
      "MEP": "http://docs.oasis-open.org/ebxml-msg/ebms/v3.0/ns/core/200704/oneWay", 
      "MEPBinding": "http://docs.oasis-open.org/ebxml-msg/ebms/v3.0/ns/core/200704/push", 
      "Responder": {
         "Party": [
            {
               "ID": "21X-EU-C-A0A0A-C", 
               "type": "http://www.entsoe.eu/eic-codes/eic-party-codes-x"
            }
         ], 
         "Role": "ZSO"
      }
   }, 
   {
      "1": {
         "BusinessInfo": {
            "Action": "http://docs.oasis-open.org/ebxml-msg/as4/200902/action", 
            "PayloadProfile": [
               {
                  "MIMEContentType": "application/xml", 
                  "PartName": "businessdocument"
               }
            ], 
            "Service": "A07"
         }, 
         "Protocol": {
            "Address": "https://tso3.eu/as4", 
            "SOAPVersion": "1.2"
         }, 
         "Security": {
            "PModeAuthorize": false
         }
      }, 
      "Agreement": "http://entsog.eu/communication/agreements/21X-EU-C-A0A0A-C/21X-EU-M-A0A0A-M/1", 
      "Initiator": {
         "Party": [
            {
               "ID": "21X-EU-M-A0A0A-M", 
               "type": "http://www.entsoe.eu/eic-codes/eic-party-codes-x"
            }
         ], 
         "Role": "ZSO"
      }, 
      "MEP": "http://docs.oasis-open.org/ebxml-msg/ebms/v3.0/ns/core/200704/oneWay", 
      "MEPBinding": "http://docs.oasis-open.org/ebxml-msg/ebms/v3.0/ns/core/200704/push", 
      "Responder": {
         "Party": [
            {
               "ID": "21X-EU-C-A0A0A-C", 
               "type": "http://www.entsoe.eu/eic-codes/eic-party-codes-x"
            }
         ], 
         "Role": "ZSO"
      }
   }, 
   {
      "1": {
         "BusinessInfo": {
            "Action": "http://docs.oasis-open.org/ebxml-msg/as4/200902/action", 
            "PayloadProfile": [
               {
                  "MIMEContentType": "application/xml", 
                  "PartName": "businessdocument"
               }
            ], 
            "Service": "A07"
         }, 
         "Protocol": {
            "Address": "https://tso3.eu/as4", 
            "SOAPVersion": "1.2"
         }, 
         "Security": {
            "PModeAuthorize": false
         }
      }, 
      "Agreement": "http://entsog.eu/communication/agreements/21X-EU-C-A0A0A-C/21X-EU-M-A0A0A-M/1", 
      "Initiator": {
         "Party": [
            {
               "ID": "21X-EU-M-A0A0A-M", 
               "type": "http://www.entsoe.eu/eic-codes/eic-party-codes-x"
            }
         ], 
         "Role": "ZSO"
      }, 
      "MEP": "http://docs.oasis-open.org/ebxml-msg/ebms/v3.0/ns/core/200704/oneWay", 
      "MEPBinding": "http://docs.oasis-open.org/ebxml-msg/ebms/v3.0/ns/core/200704/push", 
      "Responder": {
         "Party": [
            {
               "ID": "21X-EU-C-A0A0A-C", 
               "type": "http://www.entsoe.eu/eic-codes/eic-party-codes-x"
            }
         ], 
         "Role": "ZSO"
      }
   }, 
   {
      "1": {
         "BusinessInfo": {
            "Action": "http://docs.oasis-open.org/ebxml-msg/as4/200902/action", 
            "PayloadProfile": [
               {
                  "MIMEContentType": "application/xml", 
                  "PartName": "businessdocument"
               }
            ], 
            "Service": "A07"
         }, 
         "Protocol": {
            "Address": "https://tso3.eu/as4", 
            "SOAPVersion": "1.2"
         }, 
         "Security": {
            "PModeAuthorize": false
         }
      }, 
      "Agreement": "http://entsog.eu/communication/agreements/21X-EU-C-A0A0A-C/21X-EU-M-A0A0A-M/1", 
      "Initiator": {
         "Party": [
            {
               "ID": "21X-EU-M-A0A0A-M", 
               "type": "http://www.entsoe.eu/eic-codes/eic-party-codes-x"
            }
         ], 
         "Role": "ZSO"
      }, 
      "MEP": "http://docs.oasis-open.org/ebxml-msg/ebms/v3.0/ns/core/200704/oneWay", 
      "MEPBinding": "http://docs.oasis-open.org/ebxml-msg/ebms/v3.0/ns/core/200704/push", 
      "Responder": {
         "Party": [
            {
               "ID": "21X-EU-C-A0A0A-C", 
               "type": "http://www.entsoe.eu/eic-codes/eic-party-codes-x"
            }
         ], 
         "Role": "ZSO"
      }
   }, 
   {
      "1": {
         "BusinessInfo": {
            "Action": "http://docs.oasis-open.org/ebxml-msg/as4/200902/action", 
            "PayloadProfile": [
               {
                  "MIMEContentType": "application/xml", 
                  "PartName": "businessdocument"
               }
            ], 
            "Service": "A07"
         }, 
         "Protocol": {
            "Address": "https://tso3.eu/as4", 
            "SOAPVersion": "1.2"
         }, 
         "Security": {
            "PModeAuthorize": false
         }
      }, 
      "Agreement": "http://entsog.eu/communication/agreements/21X-EU-C-A0A0A-C/21X-EU-M-A0A0A-M/1", 
      "Initiator": {
         "Party": [
            {
               "ID": "21X-EU-M-A0A0A-M", 
               "type": "http://www.entsoe.eu/eic-codes/eic-party-codes-x"
            }
         ], 
         "Role": "ZSO"
      }, 
      "MEP": "http://docs.oasis-open.org/ebxml-msg/ebms/v3.0/ns/core/200704/oneWay", 
      "MEPBinding": "http://docs.oasis-open.org/ebxml-msg/ebms/v3.0/ns/core/200704/push", 
      "Responder": {
         "Party": [
            {
               "ID": "21X-EU-C-A0A0A-C", 
               "type": "http://www.entsoe.eu/eic-codes/eic-party-codes-x"
            }
         ], 
         "Role": "ZSO"
      }
   }, 
   {
      "1": {
         "BusinessInfo": {
            "Action": "http://docs.oasis-open.org/ebxml-msg/ebms/v3.0/ns/core/200704/test", 
            "Service": "http://docs.oasis-open.org/ebxml-msg/ebms/v3.0/ns/core/200704/service"
         }, 
         "Protocol": {
            "Address": "https://et14.eu/as4", 
            "SOAPVersion": "1.2"
         }, 
         "Security": {
            "PModeAuthorize": false
         }
      }, 
      "Agreement": "http://entsog.eu/communication/agreements/21X-EU-C-A0A0A-C/21X-EU-M-A0A0A-M/1", 
      "Initiator": {
         "Party": [
            {
               "ID": "21X-EU-C-A0A0A-C", 
               "type": "http://www.entsoe.eu/eic-codes/eic-party-codes-x"
            }
         ], 
         "Role": "http://docs.oasis-open.org/ebxml-msg/ebms/v3.0/ns/core/200704/initiator"
      }, 
      "MEP": "http://docs.oasis-open.org/ebxml-msg/ebms/v3.0/ns/core/200704/oneWay", 
      "MEPBinding": "http://docs.oasis-open.org/ebxml-msg/ebms/v3.0/ns/core/200704/push", 
      "Responder": {
         "Party": [
            {
               "ID": "21X-EU-M-A0A0A-M", 
               "type": "http://www.entsoe.eu/eic-codes/eic-party-codes-x"
            }
         ], 
         "Role": "http://docs.oasis-open.org/ebxml-msg/ebms/v3.0/ns/core/200704/responder"
      }
   }, 
   {
      "1": {
         "BusinessInfo": {
            "Action": "UpdateCertificate", 
            "Service": "http://docs.oasis-open.org/ebcore/ns/CertificateUpdate/v1.0"
         }, 
         "Protocol": {
            "Address": "https://et14.eu/as4", 
            "SOAPVersion": "1.2"
         }, 
         "Security": {
            "PModeAuthorize": false
         }
      }, 
      "Agreement": "http://entsog.eu/communication/agreements/21X-EU-C-A0A0A-C/21X-EU-M-A0A0A-M/1", 
      "Initiator": {
         "Party": [
            {
               "ID": "21X-EU-C-A0A0A-C", 
               "type": "http://www.entsoe.eu/eic-codes/eic-party-codes-x"
            }
         ], 
         "Role": "http://docs.oasis-open.org/ebxml-msg/ebms/v3.0/ns/core/200704/initiator"
      }, 
      "MEP": "http://docs.oasis-open.org/ebxml-msg/ebms/v3.0/ns/core/200704/oneWay", 
      "MEPBinding": "http://docs.oasis-open.org/ebxml-msg/ebms/v3.0/ns/core/200704/push", 
      "Responder": {
         "Party": [
            {
               "ID": "21X-EU-M-A0A0A-M", 
               "type": "http://www.entsoe.eu/eic-codes/eic-party-codes-x"
            }
         ], 
         "Role": "http://docs.oasis-open.org/ebxml-msg/ebms/v3.0/ns/core/200704/responder"
      }
   }, 
   {
      "1": {
         "BusinessInfo": {
            "Action": "ConfirmCertificateUpdate", 
            "Service": "http://docs.oasis-open.org/ebcore/ns/CertificateUpdate/v1.0"
         }, 
         "Protocol": {
            "Address": "https://tso3.eu/as4", 
            "SOAPVersion": "1.2"
         }, 
         "Security": {
            "PModeAuthorize": false
         }
      }, 
      "Agreement": "http://entsog.eu/communication/agreements/21X-EU-C-A0A0A-C/21X-EU-M-A0A0A-M/1", 
      "Initiator": {
         "Party": [
            {
               "ID": "21X-EU-M-A0A0A-M", 
               "type": "http://www.entsoe.eu/eic-codes/eic-party-codes-x"
            }
         ], 
         "Role": "http://docs.oasis-open.org/ebxml-msg/ebms/v3.0/ns/core/200704/responder"
      }, 
      "MEP": "http://docs.oasis-open.org/ebxml-msg/ebms/v3.0/ns/core/200704/oneWay", 
      "MEPBinding": "http://docs.oasis-open.org/ebxml-msg/ebms/v3.0/ns/core/200704/push", 
      "Responder": {
         "Party": [
            {
               "ID": "21X-EU-C-A0A0A-C", 
               "type": "http://www.entsoe.eu/eic-codes/eic-party-codes-x"
            }
         ], 
         "Role": "http://docs.oasis-open.org/ebxml-msg/ebms/v3.0/ns/core/200704/initiator"
      }
   }, 
   {
      "1": {
         "BusinessInfo": {
            "Action": "RejectCertificateUpdate", 
            "Service": "http://docs.oasis-open.org/ebcore/ns/CertificateUpdate/v1.0"
         }, 
         "Protocol": {
            "Address": "https://tso3.eu/as4", 
            "SOAPVersion": "1.2"
         }, 
         "Security": {
            "PModeAuthorize": false
         }
      }, 
      "Agreement": "http://entsog.eu/communication/agreements/21X-EU-C-A0A0A-C/21X-EU-M-A0A0A-M/1", 
      "Initiator": {
         "Party": [
            {
               "ID": "21X-EU-M-A0A0A-M", 
               "type": "http://www.entsoe.eu/eic-codes/eic-party-codes-x"
            }
         ], 
         "Role": "http://docs.oasis-open.org/ebxml-msg/ebms/v3.0/ns/core/200704/responder"
      }, 
      "MEP": "http://docs.oasis-open.org/ebxml-msg/ebms/v3.0/ns/core/200704/oneWay", 
      "MEPBinding": "http://docs.oasis-open.org/ebxml-msg/ebms/v3.0/ns/core/200704/push", 
      "Responder": {
         "Party": [
            {
               "ID": "21X-EU-C-A0A0A-C", 
               "type": "http://www.entsoe.eu/eic-codes/eic-party-codes-x"
            }
         ], 
         "Role": "http://docs.oasis-open.org/ebxml-msg/ebms/v3.0/ns/core/200704/initiator"
      }
   }, 
   {
      "1": {
         "BusinessInfo": {
            "Action": "http://docs.oasis-open.org/ebxml-msg/ebms/v3.0/ns/core/200704/test", 
            "Service": "http://docs.oasis-open.org/ebxml-msg/ebms/v3.0/ns/core/200704/service"
         }, 
         "Protocol": {
            "Address": "https://tso3.eu/as4", 
            "SOAPVersion": "1.2"
         }, 
         "Security": {
            "PModeAuthorize": false
         }
      }, 
      "Agreement": "http://entsog.eu/communication/agreements/21X-EU-C-A0A0A-C/21X-EU-M-A0A0A-M/1", 
      "Initiator": {
         "Party": [
            {
               "ID": "21X-EU-M-A0A0A-M", 
               "type": "http://www.entsoe.eu/eic-codes/eic-party-codes-x"
            }
         ], 
         "Role": "http://docs.oasis-open.org/ebxml-msg/ebms/v3.0/ns/core/200704/initiator"
      }, 
      "MEP": "http://docs.oasis-open.org/ebxml-msg/ebms/v3.0/ns/core/200704/oneWay", 
      "MEPBinding": "http://docs.oasis-open.org/ebxml-msg/ebms/v3.0/ns/core/200704/push", 
      "Responder": {
         "Party": [
            {
               "ID": "21X-EU-C-A0A0A-C", 
               "type": "http://www.entsoe.eu/eic-codes/eic-party-codes-x"
            }
         ], 
         "Role": "http://docs.oasis-open.org/ebxml-msg/ebms/v3.0/ns/core/200704/responder"
      }
   }, 
   {
      "1": {
         "BusinessInfo": {
            "Action": "ConfirmCertificateUpdate", 
            "Service": "http://docs.oasis-open.org/ebcore/ns/CertificateUpdate/v1.0"
         }, 
         "Protocol": {
            "Address": "https://et14.eu/as4", 
            "SOAPVersion": "1.2"
         }, 
         "Security": {
            "PModeAuthorize": false
         }
      }, 
      "Agreement": "http://entsog.eu/communication/agreements/21X-EU-C-A0A0A-C/21X-EU-M-A0A0A-M/1", 
      "Initiator": {
         "Party": [
            {
               "ID": "21X-EU-C-A0A0A-C", 
               "type": "http://www.entsoe.eu/eic-codes/eic-party-codes-x"
            }
         ], 
         "Role": "http://docs.oasis-open.org/ebxml-msg/ebms/v3.0/ns/core/200704/responder"
      }, 
      "MEP": "http://docs.oasis-open.org/ebxml-msg/ebms/v3.0/ns/core/200704/oneWay", 
      "MEPBinding": "http://docs.oasis-open.org/ebxml-msg/ebms/v3.0/ns/core/200704/push", 
      "Responder": {
         "Party": [
            {
               "ID": "21X-EU-M-A0A0A-M", 
               "type": "http://www.entsoe.eu/eic-codes/eic-party-codes-x"
            }
         ], 
         "Role": "http://docs.oasis-open.org/ebxml-msg/ebms/v3.0/ns/core/200704/initiator"
      }
   }, 
   {
      "1": {
         "BusinessInfo": {
            "Action": "RejectCertificateUpdate", 
            "Service": "http://docs.oasis-open.org/ebcore/ns/CertificateUpdate/v1.0"
         }, 
         "Protocol": {
            "Address": "https://et14.eu/as4", 
            "SOAPVersion": "1.2"
         }, 
         "Security": {
            "PModeAuthorize": false
         }
      }, 
      "Agreement": "http://entsog.eu/communication/agreements/21X-EU-C-A0A0A-C/21X-EU-M-A0A0A-M/1", 
      "Initiator": {
         "Party": [
            {
               "ID": "21X-EU-C-A0A0A-C", 
               "type": "http://www.entsoe.eu/eic-codes/eic-party-codes-x"
            }
         ], 
         "Role": "http://docs.oasis-open.org/ebxml-msg/ebms/v3.0/ns/core/200704/responder"
      }, 
      "MEP": "http://docs.oasis-open.org/ebxml-msg/ebms/v3.0/ns/core/200704/oneWay", 
      "MEPBinding": "http://docs.oasis-open.org/ebxml-msg/ebms/v3.0/ns/core/200704/push", 
      "Responder": {
         "Party": [
            {
               "ID": "21X-EU-M-A0A0A-M", 
               "type": "http://www.entsoe.eu/eic-codes/eic-party-codes-x"
            }
         ], 
         "Role": "http://docs.oasis-open.org/ebxml-msg/ebms/v3.0/ns/core/200704/initiator"
      }
   }, 
   {
      "1": {
         "BusinessInfo": {
            "Action": "UpdateCertificate", 
            "Service": "http://docs.oasis-open.org/ebcore/ns/CertificateUpdate/v1.0"
         }, 
         "Protocol": {
            "Address": "https://tso3.eu/as4", 
            "SOAPVersion": "1.2"
         }, 
         "Security": {
            "PModeAuthorize": false
         }
      }, 
      "Agreement": "http://entsog.eu/communication/agreements/21X-EU-C-A0A0A-C/21X-EU-M-A0A0A-M/1", 
      "Initiator": {
         "Party": [
            {
               "ID": "21X-EU-M-A0A0A-M", 
               "type": "http://www.entsoe.eu/eic-codes/eic-party-codes-x"
            }
         ], 
         "Role": "http://docs.oasis-open.org/ebxml-msg/ebms/v3.0/ns/core/200704/initiator"
      }, 
      "MEP": "http://docs.oasis-open.org/ebxml-msg/ebms/v3.0/ns/core/200704/oneWay", 
      "MEPBinding": "http://docs.oasis-open.org/ebxml-msg/ebms/v3.0/ns/core/200704/push", 
      "Responder": {
         "Party": [
            {
               "ID": "21X-EU-C-A0A0A-C", 
               "type": "http://www.entsoe.eu/eic-codes/eic-party-codes-x"
            }
         ], 
         "Role": "http://docs.oasis-open.org/ebxml-msg/ebms/v3.0/ns/core/200704/responder"
      }
   }
]